{
    "arx160": {
    "category": "master",
    "sounds": [{"name": "arx160","stream": false}]
    },
    
    "arx160_reload": {
    "category": "master",
    "sounds": [{"name": "arx160_reload","stream": false}]
    },
    
	"arx160_reloadfull": {
    "category": "master",
    "sounds": [{"name": "arx160_reloadfull","stream": false}]
    },
	
	"m16a3": {
	"category": "master",
	"sounds": [{"name": "m16a3","stream": false}]
	},
	
	"m16a3_reload": {
    "category": "master",
    "sounds": [{"name": "m16a3_reload","stream": false}]
    },
		
	"m16a3_reloadfull": {
    "category": "master",
    "sounds": [{"name": "m16a3_reloadfull","stream": false}]
    },
	
	"m4carbine": {
	"category": "master",
	"sounds": [{"name": "m4carbine","stream": false}]
	},
	
	"m4carbine_reload": {
	"category": "master",
	"sounds": [{"name": "m4carbine_reload","stream": false}]
	},
	
	"m4carbine_reloadfull": {
    "category": "master",
    "sounds": [{"name": "m4carbine_reloadfull","stream": false}]
    }
}